EDA_ProductAnalysis
…
library(treemap)

repd %>% group_by(brand ,color) %>% summarise(mprice = mean(price))

## # A tibble: 382 x 3
## # Groups:   brand [11]
##    brand color      mprice
##    <fct> <chr>       <dbl>
##  1 Fun   BLACK        13.0
##  2 Fun   BLUE         13.0
##  3 Fun   BLUE+GREEN   13.0
##  4 Fun   BLUE+GREY    13.0
##  5 Fun   BLUE+WHITE   13.0
##  6 Fun   GREEN        13.0
##  7 Fun   GREY         13.0
##  8 Fun   ORANGE       13.0
##  9 Fun   PURPLE       13.0
## 10 Fun   RED          13.0
## #  with 372 more rows
…
